The ultimate guide to generating synthetic data for causal inference | Análisis Estadístico en R
…
           (-2 * risk_factors) +  # Risk factor effect
           rnorm(n_people, mean = 0, sd = 50),  # Random noise
        net_probability = rescale(net_score, to = c(0.15, 1)),
        # Randomly generate a 0/1 variable using that probability
        net = rbinom(n_people, 1, net_probability)) %>%
  # Generate malaria risk variable based on net use, risk factors, and random noise
  mutate(malaria_risk_base = rbeta(n_people, shape1 = 7, shape2 = 5) * 100,
         # We're aiming for a -10 net effect, but need to boost it because of rescaling
         malaria_effect = (-20 * net) + (0.5 * risk_factors),
         # Make the final malaria risk score
         malaria_risk = malaria_risk_base + malaria_effect,
         # Rescale so it doesn't go below 0
         malaria_risk = rescale(malaria_risk, to = c(5, 80)))
iv_data
## # A tibble: 1,578 x 9
##       id risk_factors distance net_score net_probability   net malaria_risk_base malaria_effect malaria_risk
##    <int>        <dbl>    <dbl>     <dbl>           <dbl> <int>             <dbl>          <dbl>        <dbl>
##  1     1         69.8    3.98      -202.           0.766     1              71.1           14.9         36.5
##  2     2        107.     2.14      -284.           0.686     1              75.4           33.5         49.5
##  3     3        127.     5.47      -469.           0.505     0              57.4           63.6         56.4
##  4     4         41.4    9.61      -414.           0.558     0              37.2           20.7         20.4
##  5     5        111.     4.66      -376.           0.596     0              38.5           55.4         40.9
##  6     6        113.     2.29      -284.           0.686     1              75.7           36.3         51.3
##  7     7         85.6    0.922     -215.           0.753     0              28.7           42.8         28.2
##  8     8         86.3   12.5       -608.           0.368     1              50.6           23.2         29.4
##  9     9         85.9    3.11      -267.           0.703     1              38.4           22.9         22.4
## 10    10         77.7    1.35      -157.           0.810     1              69.1           18.9         37.6
## # … with 1,568 more rows
…
