Fuzzy regression discontinuity | Análisis Estadístico en R
…
Relevance ($Z \rightarrow X$ and \(\operatorname{Cor}(Z, X) \neq 0\)): The cutoff causes access to the tutoring program.

Exclusion ($Z \rightarrow X \rightarrow Y$ and \(Z \nrightarrow Y\) and \(\operatorname{Cor}(Z, Y | X) = 0\)): The cutoff causes exit exam scores only through the tutoring program.

Exogeneity ($U \nrightarrow Z$ and \(\operatorname{Cor}(Z, U) = 0\)): Unobserved confounders between the tutoring program and exit exam scores are unrelated to the cutoff.

Fuzzy parametric estimation

Let’s make an instrument! We’ll also center the running variable just like we did with sharp regression discontinuity:

tutoring_centered <- tutoring %>%
  mutate(entrance_centered = entrance_exam - 70,
         below_cutoff = entrance_exam <= 70)
tutoring_centered
## # A tibble: 1,000 x 7
##       id entrance_exam tutoring tutoring_text exit_exam entrance_centered below_cutoff
##    <dbl>         <dbl> <lgl>    <chr>             <dbl>             <dbl> <lgl>       
##  1     1          92.4 FALSE    No tutor           78.1            22.4   FALSE       
##  2     2          72.8 FALSE    No tutor           58.2             2.77  FALSE       
##  3     3          53.7 TRUE     Tutor              62.0           -16.3   TRUE        
##  4     4          98.3 FALSE    No tutor           67.5            28.3   FALSE       
##  5     5          69.7 TRUE     Tutor              54.1            -0.288 TRUE        
##  6     6          68.1 TRUE     Tutor              60.1            -1.93  TRUE        
##  7     7          86.0 FALSE    No tutor           73.1            16.0   FALSE       
##  8     8          85.7 TRUE     Tutor              76.7            15.7   FALSE       
##  9     9          85.9 FALSE    No tutor           57.8            15.9   FALSE       
## 10    10          89.5 FALSE    No tutor           79.9            19.5   FALSE       
## # … with 990 more rows
…
